<svg xmlns="http://www.w3.org/2000/svg" width="1280" height="197" viewBox="0 0 1280 197">
  <defs>
    <style>
      .cls-1 {
        fill: #fff;
        fill-rule: evenodd;
      }
    </style>
  </defs>
  <path class="cls-1" d="M0,61S411.9,0.353,669,76c261.994,92.729,614,74,614,74l-2,17H-4Z"/>
</svg>
